{
  "items":[
    {
      "album":{
        "album_type":"SINGLE",
        "artists":[
          {
            "external_urls":{
              "spotify":"https://open.spotify.com/artist/5Pb27ujIyYb33zBqVysBkj"
            },
            "href":"https://api.spotify.com/v1/artists/5Pb27ujIyYb33zBqVysBkj",
            "id":"5Pb27ujIyYb33zBqVysBkj",
            "name":"R\u00dcF\u00dcS DU SOL",
            "type":"artist",
            "uri":"spotify:artist:5Pb27ujIyYb33zBqVysBkj"
          }
        ],
        "available_markets":[
          "AD",
          "AE",
          "AR",
          "AT",
          "AU",
          "BE",
          "BG",
          "BH",
          "BO",
          "BR",
          "CA",
          "CH",
          "CL",
          "CO",
          "CR",
          "CY",
          "CZ",
          "DE",
          "DK",
          "DO",
          "DZ",
          "EC",
          "EE",
          "EG",
          "ES",
          "FI",
          "FR",
          "GB",
          "GR",
          "GT",
          "HK",
          "HN",
          "HU",
          "ID",
          "IE",
          "IL",
          "IN",
          "IS",
          "IT",
          "JO",
          "JP",
          "KW",
          "LB",
          "LI",
          "LT",
          "LU",
          "LV",
          "MA",
          "MC",
          "MT",
          "MX",
          "MY",
          "NI",
          "NL",
          "NO",
          "NZ",
          "OM",
          "PA",
          "PE",
          "PH",
          "PL",
          "PS",
          "PT",
          "PY",
          "QA",
          "RO",
          "SA",
          "SE",
          "SG",
          "SK",
          "SV",
          "TH",
          "TN",
          "TR",
          "TW",
          "US",
          "UY",
          "VN",
          "ZA"
        ],
        "external_urls":{
          "spotify":"https://open.spotify.com/album/7pF1j9CKPRpcecJZrzzhmc"
        },
        "href":"https://api.spotify.com/v1/albums/7pF1j9CKPRpcecJZrzzhmc",
        "id":"7pF1j9CKPRpcecJZrzzhmc",
        "images":[
          {
            "height":640,
            "url":"https://i.scdn.co/image/ab67616d0000b2732cdd402f2e60c6626f3780ab",
            "width":640
          },
          {
            "height":300,
            "url":"https://i.scdn.co/image/ab67616d00001e022cdd402f2e60c6626f3780ab",
            "width":300
          },
          {
            "height":64,
            "url":"https://i.scdn.co/image/ab67616d000048512cdd402f2e60c6626f3780ab",
            "width":64
          }
        ],
        "name":"Alive",
        "release_date":"2021-07-13",
        "release_date_precision":"day",
        "total_tracks":1,
        "type":"album",
        "uri":"spotify:album:7pF1j9CKPRpcecJZrzzhmc"
      },
      "artists":[
        {
          "external_urls":{
            "spotify":"https://open.spotify.com/artist/5Pb27ujIyYb33zBqVysBkj"
          },
          "href":"https://api.spotify.com/v1/artists/5Pb27ujIyYb33zBqVysBkj",
          "id":"5Pb27ujIyYb33zBqVysBkj",
          "name":"R\u00dcF\u00dcS DU SOL",
          "type":"artist",
          "uri":"spotify:artist:5Pb27ujIyYb33zBqVysBkj"
        }
      ],
      "available_markets":[
        "AD",
        "AE",
        "AR",
        "AT",
        "AU",
        "BE",
        "BG",
        "BH",
        "BO",
        "BR",
        "CA",
        "CH",
        "CL",
        "CO",
        "CR",
        "CY",
        "CZ",
        "DE",
        "DK",
        "DO",
        "DZ",
        "EC",
        "EE",
        "EG",
        "ES",
        "FI",
        "FR",
        "GB",
        "GR",
        "GT",
        "HK",
        "HN",
        "HU",
        "ID",
        "IE",
        "IL",
        "IN",
        "IS",
        "IT",
        "JO",
        "JP",
        "KW",
        "LB",
        "LI",
        "LT",
        "LU",
        "LV",
        "MA",
        "MC",
        "MT",
        "MX",
        "MY",
        "NI",
        "NL",
        "NO",
        "NZ",
        "OM",
        "PA",
        "PE",
        "PH",
        "PL",
        "PS",
        "PT",
        "PY",
        "QA",
        "RO",
        "SA",
        "SE",
        "SG",
        "SK",
        "SV",
        "TH",
        "TN",
        "TR",
        "TW",
        "US",
        "UY",
        "VN",
        "ZA"
      ],
      "disc_number":1,
      "duration_ms":334754,
      "explicit":false,
      "external_ids":{
        "isrc":"USRE12100559"
      },
      "external_urls":{
        "spotify":"https://open.spotify.com/track/5IKaBEdCQlfB6aikIFKuR8"
      },
      "href":"https://api.spotify.com/v1/tracks/5IKaBEdCQlfB6aikIFKuR8",
      "id":"5IKaBEdCQlfB6aikIFKuR8",
      "is_local":false,
      "name":"Alive",
      "popularity":67,
      "preview_url":"https://p.scdn.co/mp3-preview/db0e22d0bd34607743bca5fbb0662f6846c856e4?cid=774b29d4f13844c495f206cafdad9c86",
      "track_number":1,
      "type":"track",
      "uri":"spotify:track:5IKaBEdCQlfB6aikIFKuR8"
    },
    {
      "album":{
        "album_type":"SINGLE",
        "artists":[
          {
            "external_urls":{
              "spotify":"https://open.spotify.com/artist/7gXy60xRcwYujBFoYHnR2O"
            },
            "href":"https://api.spotify.com/v1/artists/7gXy60xRcwYujBFoYHnR2O",
            "id":"7gXy60xRcwYujBFoYHnR2O",
            "name":"Big Red Machine",
            "type":"artist",
            "uri":"spotify:artist:7gXy60xRcwYujBFoYHnR2O"
          },
          {
            "external_urls":{
              "spotify":"https://open.spotify.com/artist/06HL4z0CvFAxyc27GXpf02"
            },
            "href":"https://api.spotify.com/v1/artists/06HL4z0CvFAxyc27GXpf02",
            "id":"06HL4z0CvFAxyc27GXpf02",
            "name":"Taylor Swift",
            "type":"artist",
            "uri":"spotify:artist:06HL4z0CvFAxyc27GXpf02"
          }
        ],
        "available_markets":[
          "AD",
          "AE",
          "AR",
          "AT",
          "AU",
          "BE",
          "BG",
          "BH",
          "BO",
          "BR",
          "CA",
          "CH",
          "CL",
          "CO",
          "CR",
          "CY",
          "CZ",
          "DE",
          "DK",
          "DO",
          "DZ",
          "EC",
          "EE",
          "EG",
          "ES",
          "FI",
          "FR",
          "GB",
          "GR",
          "GT",
          "HK",
          "HN",
          "HU",
          "ID",
          "IE",
          "IL",
          "IN",
          "IS",
          "IT",
          "JO",
          "JP",
          "KW",
          "LB",
          "LI",
          "LT",
          "LU",
          "LV",
          "MA",
          "MC",
          "MT",
          "MX",
          "MY",
          "NI",
          "NL",
          "NO",
          "NZ",
          "OM",
          "PA",
          "PE",
          "PH",
          "PL",
          "PS",
          "PT",
          "PY",
          "QA",
          "RO",
          "SA",
          "SE",
          "SG",
          "SK",
          "SV",
          "TH",
          "TN",
          "TR",
          "TW",
          "US",
          "UY",
          "VN",
          "ZA"
        ],
        "external_urls":{
          "spotify":"https://open.spotify.com/album/4kD0pFwhEjEiF9pwUwkpNo"
        },
        "href":"https://api.spotify.com/v1/albums/4kD0pFwhEjEiF9pwUwkpNo",
        "id":"4kD0pFwhEjEiF9pwUwkpNo",
        "images":[
          {
            "height":640,
            "url":"https://i.scdn.co/image/ab67616d0000b273b8abc4de41be8b3158a4ef40",
            "width":640
          },
          {
            "height":300,
            "url":"https://i.scdn.co/image/ab67616d00001e02b8abc4de41be8b3158a4ef40",
            "width":300
          },
          {
            "height":64,
            "url":"https://i.scdn.co/image/ab67616d00004851b8abc4de41be8b3158a4ef40",
            "width":64
          }
        ],
        "name":"Renegade (feat. Taylor Swift)",
        "release_date":"2021-07-02",
        "release_date_precision":"day",
        "total_tracks":3,
        "type":"album",
        "uri":"spotify:album:4kD0pFwhEjEiF9pwUwkpNo"
      },
      "artists":[
        {
          "external_urls":{
            "spotify":"https://open.spotify.com/artist/7gXy60xRcwYujBFoYHnR2O"
          },
          "href":"https://api.spotify.com/v1/artists/7gXy60xRcwYujBFoYHnR2O",
          "id":"7gXy60xRcwYujBFoYHnR2O",
          "name":"Big Red Machine",
          "type":"artist",
          "uri":"spotify:artist:7gXy60xRcwYujBFoYHnR2O"
        },
        {
          "external_urls":{
            "spotify":"https://open.spotify.com/artist/06HL4z0CvFAxyc27GXpf02"
          },
          "href":"https://api.spotify.com/v1/artists/06HL4z0CvFAxyc27GXpf02",
          "id":"06HL4z0CvFAxyc27GXpf02",
          "name":"Taylor Swift",
          "type":"artist",
          "uri":"spotify:artist:06HL4z0CvFAxyc27GXpf02"
        }
      ],
      "available_markets":[
        "AD",
        "AE",
        "AR",
        "AT",
        "AU",
        "BE",
        "BG",
        "BH",
        "BO",
        "BR",
        "CA",
        "CH",
        "CL",
        "CO",
        "CR",
        "CY",
        "CZ",
        "DE",
        "DK",
        "DO",
        "DZ",
        "EC",
        "EE",
        "EG",
        "ES",
        "FI",
        "FR",
        "GB",
        "GR",
        "GT",
        "HK",
        "HN",
        "HU",
        "ID",
        "IE",
        "IL",
        "IN",
        "IS",
        "IT",
        "JO",
        "JP",
        "KW",
        "LB",
        "LI",
        "LT",
        "LU",
        "LV",
        "MA",
        "MC",
        "MT",
        "MX",
        "MY",
        "NI",
        "NL",
        "NO",
        "NZ",
        "OM",
        "PA",
        "PE",
        "PH",
        "PL",
        "PS",
        "PT",
        "PY",
        "QA",
        "RO",
        "SA",
        "SE",
        "SG",
        "SK",
        "SV",
        "TH",
        "TN",
        "TR",
        "TW",
        "US",
        "UY",
        "VN",
        "ZA"
      ],
      "disc_number":1,
      "duration_ms":254466,
      "explicit":false,
      "external_ids":{
        "isrc":"US38Y2141505"
      },
      "external_urls":{
        "spotify":"https://open.spotify.com/track/1aU1wpYBSpP0M6IiihY5Ue"
      },
      "href":"https://api.spotify.com/v1/tracks/1aU1wpYBSpP0M6IiihY5Ue",
      "id":"1aU1wpYBSpP0M6IiihY5Ue",
      "is_local":false,
      "name":"Renegade (feat. Taylor Swift)",
      "popularity":75,
      "preview_url":"https://p.scdn.co/mp3-preview/e3b1851865f3ee5f213dfd8d950e344e6b14ec8c?cid=774b29d4f13844c495f206cafdad9c86",
      "track_number":1,
      "type":"track",
      "uri":"spotify:track:1aU1wpYBSpP0M6IiihY5Ue"
    },
    {
      "album":{
        "album_type":"ALBUM",
        "artists":[
          {
            "external_urls":{
              "spotify":"https://open.spotify.com/artist/2wJ4vsxWd7df7dRU4KcoDe"
            },
            "href":"https://api.spotify.com/v1/artists/2wJ4vsxWd7df7dRU4KcoDe",
            "id":"2wJ4vsxWd7df7dRU4KcoDe",
            "name":"Sharon Van Etten",
            "type":"artist",
            "uri":"spotify:artist:2wJ4vsxWd7df7dRU4KcoDe"
          }
        ],
        "available_markets":[
          "AD",
          "AE",
          "AR",
          "AT",
          "AU",
          "BE",
          "BG",
          "BH",
          "BO",
          "BR",
          "CA",
          "CH",
          "CL",
          "CO",
          "CR",
          "CY",
          "CZ",
          "DE",
          "DK",
          "DO",
          "DZ",
          "EC",
          "EE",
          "EG",
          "ES",
          "FI",
          "FR",
          "GB",
          "GR",
          "GT",
          "HK",
          "HN",
          "HU",
          "ID",
          "IE",
          "IL",
          "IN",
          "IS",
          "IT",
          "JO",
          "JP",
          "KW",
          "LB",
          "LI",
          "LT",
          "LU",
          "LV",
          "MA",
          "MC",
          "MT",
          "MX",
          "MY",
          "NI",
          "NL",
          "NO",
          "NZ",
          "OM",
          "PA",
          "PE",
          "PH",
          "PL",
          "PS",
          "PT",
          "PY",
          "QA",
          "RO",
          "SA",
          "SE",
          "SG",
          "SK",
          "SV",
          "TH",
          "TN",
          "TR",
          "TW",
          "US",
          "UY",
          "VN",
          "ZA"
        ],
        "external_urls":{
          "spotify":"https://open.spotify.com/album/7bYAuBOpWMA1F61cbXrKfM"
        },
        "href":"https://api.spotify.com/v1/albums/7bYAuBOpWMA1F61cbXrKfM",
        "id":"7bYAuBOpWMA1F61cbXrKfM",
        "images":[
          {
            "height":640,
            "url":"https://i.scdn.co/image/ab67616d0000b27309cca0e03a6c358b8e48669d",
            "width":640
          },
          {
            "height":300,
            "url":"https://i.scdn.co/image/ab67616d00001e0209cca0e03a6c358b8e48669d",
            "width":300
          },
          {
            "height":64,
            "url":"https://i.scdn.co/image/ab67616d0000485109cca0e03a6c358b8e48669d",
            "width":64
          }
        ],
        "name":"Tramp",
        "release_date":"2012-02-07",
        "release_date_precision":"day",
        "total_tracks":12,
        "type":"album",
        "uri":"spotify:album:7bYAuBOpWMA1F61cbXrKfM"
      },
      "artists":[
        {
          "external_urls":{
            "spotify":"https://open.spotify.com/artist/2wJ4vsxWd7df7dRU4KcoDe"
          },
          "href":"https://api.spotify.com/v1/artists/2wJ4vsxWd7df7dRU4KcoDe",
          "id":"2wJ4vsxWd7df7dRU4KcoDe",
          "name":"Sharon Van Etten",
          "type":"artist",
          "uri":"spotify:artist:2wJ4vsxWd7df7dRU4KcoDe"
        }
      ],
      "available_markets":[
        "AD",
        "AE",
        "AR",
        "AT",
        "AU",
        "BE",
        "BG",
        "BH",
        "BO",
        "BR",
        "CA",
        "CH",
        "CL",
        "CO",
        "CR",
        "CY",
        "CZ",
        "DE",
        "DK",
        "DO",
        "DZ",
        "EC",
        "EE",
        "EG",
        "ES",
        "FI",
        "FR",
        "GB",
        "GR",
        "GT",
        "HK",
        "HN",
        "HU",
        "ID",
        "IE",
        "IL",
        "IN",
        "IS",
        "IT",
        "JO",
        "JP",
        "KW",
        "LB",
        "LI",
        "LT",
        "LU",
        "LV",
        "MA",
        "MC",
        "MT",
        "MX",
        "MY",
        "NI",
        "NL",
        "NO",
        "NZ",
        "OM",
        "PA",
        "PE",
        "PH",
        "PL",
        "PS",
        "PT",
        "PY",
        "QA",
        "RO",
        "SA",
        "SE",
        "SG",
        "SK",
        "SV",
        "TH",
        "TN",
        "TR",
        "TW",
        "US",
        "UY",
        "VN",
        "ZA"
      ],
      "disc_number":1,
      "duration_ms":242720,
      "explicit":false,
      "external_ids":{
        "isrc":"US38Y1220112"
      },
      "external_urls":{
        "spotify":"https://open.spotify.com/track/7nE3NEbAGq2Dd3klrxLmmW"
      },
      "href":"https://api.spotify.com/v1/tracks/7nE3NEbAGq2Dd3klrxLmmW",
      "id":"7nE3NEbAGq2Dd3klrxLmmW",
      "is_local":false,
      "name":"Joke or a Lie",
      "popularity":22,
      "preview_url":"https://p.scdn.co/mp3-preview/c70ed84044d3b7225a4883e03af4c891dc63a795?cid=774b29d4f13844c495f206cafdad9c86",
      "track_number":12,
      "type":"track",
      "uri":"spotify:track:7nE3NEbAGq2Dd3klrxLmmW"
    }
  ],
  "total":50,
  "limit":10,
  "offset":0,
  "previous":null,
  "href":"https://api.spotify.com/v1/me/top/tracks?limit=10&offset=0&time_range=short_term",
  "next":"https://api.spotify.com/v1/me/top/tracks?limit=10&offset=10&time_range=short_term"
}
